…
- `country`: a character containing the name of the country of interest, it is possible to import all the data availables for all the countries specifying `country = "all"`. 

- `division`: the division of interest, it is possible to import all the data availables for all the divisions specifying `division = "all"`. 

- `year`: the year of interest, it can be a numeric vector that contains as the first element the first year and as second element the last year. In that case the function will import all the data between the two years included. 

### Specific Country and Division for 10 years (2010-2020)


```r
> football_uk(country = "england", division = "div1", year = c(start = 2010, end = 2020), verbose = TRUE)    

# A tibble: 5,920 × 34
   country division season    year date                home_…¹ away_…² home_…³ home_…⁴ away_…⁵ away_…⁶ resul…⁷ resul…⁸ home_…⁹ home_…˟ home_…˟ home_…˟ home_…˟ away_…˟ away_…˟ away_…˟ away_…˟ away_…˟ home_…˟ drow_…˟ away_…˟ under…˟
   <chr>   <chr>    <chr>    <int> <dttm>              <chr>   <chr>     <dbl>   <dbl>   <dbl>   <dbl> <chr>   <chr>     <dbl>   <dbl>   <dbl>   <dbl>   <dbl>   <dbl>   <dbl>   <dbl>   <dbl>   <int>   <dbl>   <dbl>   <dbl>   <dbl>
 1 england div1     2019-20…  2020 2020-03-10 01:00:00 Blackp… Tranme…       0       1       2       2 A       A            16       6       8       2       0       9       2       6       1       0    1.65    3.9     5.25       0
 2 england div1     2019-20…  2020 2020-03-10 01:00:00 Bristo… Sunder…       1       2       0       0 H       H             8       3       5       3       0       6       2       2       3       0    5.5     3.6     1.7        0
 3 england div1     2019-20…  2020 2020-03-10 01:00:00 Burton  Bolton        1       2       2       2 A       D            16       2       7       1       0      11       4       9       1       0    1.5     4.33    6.5        0
 4 england div1     2019-20…  2020 2020-03-10 01:00:00 Portsm… Fleetw…       1       2       1       2 D       D             9       2       5       2       0       9       6      10       4       0    2       3.5     3.75       0
 5 england div1     2019-20…  2020 2020-03-07 01:00:00 Accrin… Tranme…       0       1       1       2 A       A            14       2       5       1       1       9       2       5       3       0    1.83    3.6     4.33       0
 6 england div1     2019-20…  2020 2020-03-07 01:00:00 AFC Wi… Bolton        0       0       0       0 D       D            15       1      12       0       0      10       0       5       0       0    2.05    3.6     3.4        1
 7 england div1     2019-20…  2020 2020-03-07 01:00:00 Fleetw… Blackp…       0       0       0       0 D       D             8       1       3       0       0       8       1       5       2       0    1.83    3.6     4.33       1
 8 england div1     2019-20…  2020 2020-03-07 01:00:00 Ipswich Covent…       0       0       1       1 A       A             6       2       5       3       0       8       2       3       3       0    2.62    3.2     2.75       0
 9 england div1     2019-20…  2020 2020-03-07 01:00:00 Lincoln Burton        2       3       2       2 D       H             8       3       2       1       0      12       7       5       2       0    2.4     3.3     3          0
10 england div1     2019-20…  2020 2020-03-07 01:00:00 Milton… Doncas…       0       0       0       1 D       A            12       3       4       1       0      12       3       5       3       0    2.6     3.4     2.7        0
# … with 5,910 more rows, 7 more variables: under1.5 <dbl>, under2.5 <dbl>, under3.5 <dbl>, under4.5 <dbl>, under5.5 <dbl>, goal1T <dbl>, goal2T <dbl>, and abbreviated variable names ¹​home_team, ²​away_team, ³​home_goal_1T,
#   ⁴​home_goal_2T, ⁵​away_goal_1T, ⁶​away_goal_2T, ⁷​result_1T, ⁸​result_2T, ⁹​home_shots, ˟​home_target_shots, ˟​home_corners, ˟​home_yellow, ˟​home_red, ˟​away_shots, ˟​away_target_shots, ˟​away_corners, ˟​away_yellow, ˟​away_red, ˟​home_quote, ˟​drow_quote, ˟​away_quote, ˟​under0.5
```

### All the data available in the period 2005-2023

```r
> football_uk(country = "all", division = "all", year = c(start = 2005, end = 2023), verbose = TRUE)    

A tibble: 133,177 × 34
   country division season    year date                home_…¹ away_…² home_…³ home_…⁴ away_…⁵ away_…⁶ resul…⁷ resul…⁸ home_…⁹ home_…˟ home_…˟ home_…˟ home_…˟ away_…˟ away_…˟ away_…˟ away_…˟ away_…˟ home_…˟ drow_…˟ away_…˟ under…˟
   <chr>   <chr>    <chr>    <int> <dttm>              <chr>   <chr>     <dbl>   <dbl>   <dbl>   <dbl> <chr>   <chr>     <dbl>   <dbl>   <dbl>   <dbl>   <dbl>   <dbl>   <dbl>   <dbl>   <dbl>   <int>   <dbl>   <dbl>   <dbl>   <dbl>
 1 england premier  2022-20…  2023 2023-01-12 01:00:00 Fulham  Chelsea       1       2       0       1 H       H             8       3       5       4       0      20      10       7       3       1    3.3     3.5     2.15       0
 2 france  div1     2022-20…  2023 2023-01-11 01:00:00 Ajaccio Reims         0       0       1       1 A       A            11       1       2       3       0       9       3       2       3       0    3.1     3.1     2.5        0
 3 france  div1     2022-20…  2023 2023-01-11 01:00:00 Auxerre Toulou…       0       0       3       5 A       A            19       4       7       3       0       9       7       4       1       0    2.75    3.3     2.6        0
 4 france  div1     2022-20…  2023 2023-01-11 01:00:00 Brest   Lille         0       0       0       0 D       D             5       0       0       0       0      11       4       8       1       0    4       3.6     1.91       1
 5 france  div1     2022-20…  2023 2023-01-11 01:00:00 Clermo… Rennes        1       2       0       1 H       H            11       5       4       0       0       9       2       1       2       2    4.2     3.5     1.91       0
 6 france  div1     2022-20…  2023 2023-01-11 01:00:00 Nantes  Lyon          0       0       0       0 D       D            13       5       6       2       0      10       6       1       3       0    3.3     3.4     2.2        1
 7 france  div1     2022-20…  2023 2023-01-11 01:00:00 Lorient Monaco        0       2       0       2 D       D             8       6       3       1       0      16       4       4       1       0    3.8     3.75    1.91       0
 8 france  div1     2022-20…  2023 2023-01-11 01:00:00 Nice    Montpe…       2       6       0       1 H       H            16      10       3       1       0       4       2       4       1       0    1.8     3.6     4.5        0
 9 france  div1     2022-20…  2023 2023-01-11 01:00:00 Paris … Angers        1       2       0       0 H       H             9       6       5       1       0       6       0       1       2       0    1.11   10      19          0
10 france  div1     2022-20…  2023 2023-01-11 01:00:00 Strasb… Lens          2       2       2       2 D       D             9       6       3       1       0      15       8       4       1       0    3.8     3.5     1.95       0
# … with 133,167 more rows, 7 more variables: under1.5 <dbl>, under2.5 <dbl>, under3.5 <dbl>, under4.5 <dbl>, under5.5 <dbl>, goal1T <dbl>, goal2T <dbl>, and abbreviated variable names ¹​home_team, ²​away_team, ³​home_goal_1T,
#   ⁴​home_goal_2T, ⁵​away_goal_1T, ⁶​away_goal_2T, ⁷​result_1T, ⁸​result_2T, ⁹​home_shots, ˟​home_target_shots, ˟​home_corners, ˟​home_yellow, ˟​home_red, ˟​away_shots, ˟​away_target_shots, ˟​away_corners, ˟​away_yellow, ˟​away_red, ˟​home_quote, ˟​drow_quote, ˟​away_quote, ˟​under0.5
```
…
